%YAML 1.1
%TAG !u! tag:unity3d.com,2011:
--- !u!114 &11400000
MonoBehaviour:
  m_ObjectHideFlags: 0
  m_CorrespondingSourceObject: {fileID: 0}
  m_PrefabInstance: {fileID: 0}
  m_PrefabAsset: {fileID: 0}
  m_GameObject: {fileID: 0}
  m_Enabled: 1
  m_EditorHideFlags: 0
  m_Script: {fileID: 11500000, guid: ee54661ca8af487c9db40e57d479fa48, type: 3}
  m_Name: PD_MixedRealityInputActionRulesProfile
  m_EditorClassIdentifier: 
  isCustomProfile: 1
  inputActionRulesDigital: []
  inputActionRulesSingleAxis: []
  inputActionRulesDualAxis: []
  inputActionRulesVectorAxis: []
  inputActionRulesQuaternionAxis: []
  inputActionRulesPoseAxis: []
