%YAML 1.1
%TAG !u! tag:unity3d.com,2011:
--- !u!114 &11400000
MonoBehaviour:
  m_ObjectHideFlags: 0
  m_CorrespondingSourceObject: {fileID: 0}
  m_PrefabInstance: {fileID: 0}
  m_PrefabAsset: {fileID: 0}
  m_GameObject: {fileID: 0}
  m_Enabled: 1
  m_EditorHideFlags: 0
  m_Script: {fileID: 11500000, guid: 514da61389c049c0bdaf31b7f6970d33, type: 3}
  m_Name: PD_MixedRealityControllerVisualizationProfile
  m_EditorClassIdentifier: 
  isCustomProfile: 1
  renderMotionControllers: 1
  defaultControllerVisualizationType:
    reference: Microsoft.MixedReality.Toolkit.Input.WindowsMixedRealityControllerVisualizer,
      Microsoft.MixedReality.Toolkit.SDK
  useDefaultModels: 0
  globalLeftControllerModel: {fileID: 1370450866519632, guid: 626257b1a6cd47c2a32a18cf75b2fb23,
    type: 3}
  globalRightControllerModel: {fileID: 1760394390528354, guid: 9ef0df44319c4fb4a05649e5b8ceb6d1,
    type: 3}
  globalLeftHandVisualizer: {fileID: 1227372834072826, guid: 378f91dbbff9e2343b27a467467750bf,
    type: 3}
  globalRightHandVisualizer: {fileID: 1788309537287834, guid: 132c9402d5843aa4f94380840186fd41,
    type: 3}
  controllerVisualizationSettings:
  - description: Windows Mixed Reality Controller
    controllerType:
      reference: Microsoft.MixedReality.Toolkit.WindowsMixedReality.Input.WindowsMixedRealityController,
        Microsoft.MixedReality.Toolkit.Providers.WindowsMixedReality
    handedness: 1
    useDefaultModel: 0
    overrideModel: {fileID: 6014928759613959744, guid: 6cdd6a3dfe9121a4db30c319fa3dbe2c,
      type: 3}
    controllerVisualizationType:
      reference: Microsoft.MixedReality.Toolkit.Input.WindowsMixedRealityControllerVisualizer,
        Microsoft.MixedReality.Toolkit.SDK
  - description: Windows Mixed Reality Controller
    controllerType:
      reference: Microsoft.MixedReality.Toolkit.WindowsMixedReality.Input.WindowsMixedRealityController,
        Microsoft.MixedReality.Toolkit.Providers.WindowsMixedReality
    handedness: 2
    useDefaultModel: 0
    overrideModel: {fileID: 8950818379514126306, guid: 0079b45152c045544a2d9547cb8652c2,
      type: 3}
    controllerVisualizationType:
      reference: Microsoft.MixedReality.Toolkit.Input.WindowsMixedRealityControllerVisualizer,
        Microsoft.MixedReality.Toolkit.SDK
